%YAML 1.1
%TAG !u! tag:unity3d.com,2011:
--- !u!114 &11400000
MonoBehaviour:
  m_ObjectHideFlags: 0
  m_CorrespondingSourceObject: {fileID: 0}
  m_PrefabInstance: {fileID: 0}
  m_PrefabAsset: {fileID: 0}
  m_GameObject: {fileID: 0}
  m_Enabled: 1
  m_EditorHideFlags: 0
  m_Script: {fileID: 11500000, guid: 7c6a0f4706bb58f488bde65e3e1dd6f9, type: 3}
  m_Name: Shotgun
  m_EditorClassIdentifier: 
  damage: 8
  range: 4
  autoMode: 0
  fireRate: 0
  maxAmo: 0
  reloadTime: 0
  recoil: 0
  fireSound: {fileID: 8300000, guid: ce6580ab8e3c9b4449ecf1d304d561c0, type: 3}
  weaponGO: {fileID: 100000, guid: 621a34edc52ed564691a1e478641944a, type: 3}
  crosshairImg: {fileID: 21300000, guid: 08333cc5f63a6d149bae6ab275c070ac, type: 3}
